…
``` r
# load and check dataset

wq <- read_csv("BayDeltaWQ.csv",
               col_names = TRUE,
               na = c("NA", "n/p", "n/a"),
               guess_max = 30000)
wq
```

    ## # A tibble: 30,520 x 103
    ##       X1 SampleDate StationCode Depth `1% Light Depth` `Conductance (EC)`
    ##    <int> <date>     <chr>       <int>            <dbl>              <dbl>
    ##  1     1 1975-01-07 D11             3             1.77                235
    ##  2     2 1975-01-07 D15             3             1.77                230
    ##  3     3 1975-01-07 D16             3             1.54                185
    ##  4     4 1975-01-07 D19             3             1.64                209
    ##  5     5 1975-01-07 D22             3             1.77                191
    ##  6     6 1975-01-07 D24             3             1.94                170
    ##  7     7 1975-01-07 D26             3             1.64                193
    ##  8     8 1975-01-07 D4              3             1.48                344
    ##  9     9 1975-01-08 D10             3             1.57               2500
    ## 10    10 1975-01-08 D10            37            NA                  4510
    ## # ... with 30,510 more rows, and 97 more variables: SiteDepth <dbl>,
    ## #   `Field Notes` <dbl>, Fluorescence <dbl>, Latitude <dbl>, Longitude
    ## #   <dbl>, Oxygen <dbl>, pH <dbl>, `Secchi Depth` <dbl>, Temperature
    ## #   <dbl>, `Tide Stage` <int>, `Tide Time` <chr>, Turbidity <dbl>,
    ## #   `Weather Observations` <chr>, `Wind Direction` <int>, `Wind Velocity`
    ## #   <int>, VarType <chr>, Alachlor <chr>, Aldrin <chr>, `Ammonia
    ## #   (Dissolved)` <dbl>, `Ammonia (Total)` <dbl>, `Arsenic (Dissolved)`
    ## #   <int>, `Arsenic (Total)` <int>, `Atra+Simazine (Atrazine & Simazine)`
    ## #   <dbl>, Atrazine <chr>, BHC <dbl>, `BHC-alpha` <chr>, `BHC-beta` <chr>,
…
``` r
# pull out month and year from SampleDate--
# to allow for grouping by year and month

wq_bymonth <- wq %>%
  mutate(Year = lubridate::year(SampleDate)) %>%    # add Year column
  mutate(Month = lubridate::month(SampleDate)) %>%  # add Month column
  group_by(Year, Month) %>%                         # # group rows by year and month
  select(Month, everything()) %>%                   # move Month column as 1st column
  select(Year, everything())                        # move Year column as 1st column
wq_bymonth
```

    ## # A tibble: 30,520 x 105
    ## # Groups: Year, Month [455]
    ##     Year Month    X1 SampleDate StationCode Depth `1% Light Depth`
    ##    <dbl> <dbl> <int> <date>     <chr>       <int>            <dbl>
    ##  1  1975  1.00     1 1975-01-07 D11             3             1.77
    ##  2  1975  1.00     2 1975-01-07 D15             3             1.77
    ##  3  1975  1.00     3 1975-01-07 D16             3             1.54
    ##  4  1975  1.00     4 1975-01-07 D19             3             1.64
    ##  5  1975  1.00     5 1975-01-07 D22             3             1.77
    ##  6  1975  1.00     6 1975-01-07 D24             3             1.94
    ##  7  1975  1.00     7 1975-01-07 D26             3             1.64
    ##  8  1975  1.00     8 1975-01-07 D4              3             1.48
    ##  9  1975  1.00     9 1975-01-08 D10             3             1.57
    ## 10  1975  1.00    10 1975-01-08 D10            37            NA   
    ## # ... with 30,510 more rows, and 98 more variables: `Conductance (EC)`
    ## #   <dbl>, SiteDepth <dbl>, `Field Notes` <dbl>, Fluorescence <dbl>,
    ## #   Latitude <dbl>, Longitude <dbl>, Oxygen <dbl>, pH <dbl>, `Secchi
    ## #   Depth` <dbl>, Temperature <dbl>, `Tide Stage` <int>, `Tide Time`
    ## #   <chr>, Turbidity <dbl>, `Weather Observations` <chr>, `Wind Direction`
    ## #   <int>, `Wind Velocity` <int>, VarType <chr>, Alachlor <chr>, Aldrin
    ## #   <chr>, `Ammonia (Dissolved)` <dbl>, `Ammonia (Total)` <dbl>, `Arsenic
    ## #   (Dissolved)` <int>, `Arsenic (Total)` <int>, `Atra+Simazine (Atrazine
    ## #   & Simazine)` <dbl>, Atrazine <chr>, BHC <dbl>, `BHC-alpha` <chr>,
…
``` r
# filter rows to select only those sampled from--
# October 2004 to September 2012 (water years 2005-2012)

wq_bymonth <- wq_bymonth %>%
  #group_by(Year, Month) %>%               # group rows by year and month
  filter(Year > 2003) %>%                 # select observations after 2003
  filter(!(Year==2004 && Month<10)) %>%   # take out January-September 2004
  filter(!(Year==2012 && Month>9))        # take out October-December 2012
wq_bymonth
```

    ## # A tibble: 4,723 x 105
    ## # Groups: Year, Month [96]
    ##     Year Month    X1 SampleDate StationCode Depth `1% Light Depth`
    ##    <dbl> <dbl> <int> <date>     <chr>       <int>            <dbl>
    ##  1  2004  10.0 12573 2004-10-18 D16             3               NA
    ##  2  2004  10.0 12574 2004-10-18 D19             3               NA
    ##  3  2004  10.0 12575 2004-10-18 D26             3               NA
    ##  4  2004  10.0 12576 2004-10-18 D28A            3               NA
    ##  5  2004  10.0 12577 2004-10-19 MD10A           3               NA
    ##  6  2004  10.0 12578 2004-10-19 P8              3               NA
    ##  7  2004  10.0 12579 2004-10-20 C10             3               NA
    ##  8  2004  10.0 12580 2004-10-20 C3              3               NA
    ##  9  2004  10.0 12581 2004-10-20 D7              3               NA
    ## 10  2004  10.0 12582 2004-10-20 NZ032           3               NA
    ## # ... with 4,713 more rows, and 98 more variables: `Conductance (EC)`
    ## #   <dbl>, SiteDepth <dbl>, `Field Notes` <dbl>, Fluorescence <dbl>,
    ## #   Latitude <dbl>, Longitude <dbl>, Oxygen <dbl>, pH <dbl>, `Secchi
    ## #   Depth` <dbl>, Temperature <dbl>, `Tide Stage` <int>, `Tide Time`
    ## #   <chr>, Turbidity <dbl>, `Weather Observations` <chr>, `Wind Direction`
    ## #   <int>, `Wind Velocity` <int>, VarType <chr>, Alachlor <chr>, Aldrin
    ## #   <chr>, `Ammonia (Dissolved)` <dbl>, `Ammonia (Total)` <dbl>, `Arsenic
    ## #   (Dissolved)` <int>, `Arsenic (Total)` <int>, `Atra+Simazine (Atrazine
    ## #   & Simazine)` <dbl>, Atrazine <chr>, BHC <dbl>, `BHC-alpha` <chr>,
…
wq_meanmonthly <- wq_bymonth %>%
  summarise_if(is.numeric, mean, na.rm = TRUE) %>%
       # take the mean values of each month of--
       # each year only if the column type is a numeric
  select(-X1) %>%
       # take out index column (not useful)
  select(`Chlorophyll a`, everything())
       # move Chl-a column as first column
wq_meanmonthly
```

    ## # A tibble: 96 x 69
    ## # Groups: Year [9]
    ##    `Chlorophyll a`  Year Month Depth `1% Light Depth` `Conductance (EC)`
    ##              <dbl> <dbl> <dbl> <dbl>            <dbl>              <dbl>
    ##  1           2.43   2004 10.0   3.00              NaN              12951
    ##  2           1.63   2004 11.0   3.00              NaN              12791
    ##  3           0.462  2004 12.0   3.00              NaN              11360
    ##  4           0.923  2005  1.00  3.00              NaN               6480
    ##  5           1.51   2005  2.00  3.00              NaN               6788
    ##  6           4.55   2005  3.00  3.00              NaN               4981
    ##  7           4.50   2005  4.00  3.00              NaN               5753
    ##  8           4.37   2005  5.00  3.00              NaN               3545
    ##  9           3.53   2005  6.00  3.00              NaN               4873
    ## 10           5.54   2005  7.00  3.00              NaN               6708
    ## # ... with 86 more rows, and 63 more variables: SiteDepth <dbl>, `Field
    ## #   Notes` <dbl>, Fluorescence <dbl>, Latitude <dbl>, Longitude <dbl>,
    ## #   Oxygen <dbl>, pH <dbl>, `Secchi Depth` <dbl>, Temperature <dbl>, `Tide
    ## #   Stage` <dbl>, Turbidity <dbl>, `Wind Direction` <dbl>, `Wind Velocity`
    ## #   <dbl>, `Ammonia (Dissolved)` <dbl>, `Ammonia (Total)` <dbl>, `Arsenic
    ## #   (Dissolved)` <dbl>, `Arsenic (Total)` <dbl>, `Atra+Simazine (Atrazine
    ## #   & Simazine)` <dbl>, BHC <dbl>, `Biochemical Oxygen Demand (BOD)`
    ## #   <dbl>, `Cadmium (Dissolved)` <dbl>, `Cadmium (Total)` <dbl>, `Calcium
    ## #   (Dissolved)` <dbl>, Captafol <dbl>, `Chloride (Dissolved)` <dbl>,
…
#### **--Data preparation**

``` r
# remove NaN values

wq_meanmonthly_mod <- wq_meanmonthly %>%
  select_if(~sum(!is.na(.)) > 0) %>%
       # remove columns with values that are all NaN
  select_if(~sum(!is.na(.)) == nrow(wq_meanmonthly))
       # remove columns which have NaN values
wq_meanmonthly_mod
```

    ## # A tibble: 96 x 23
    ## # Groups: Year [9]
    ##     Year `Chlorophyll a` Month Depth `Conductance (EC)` SiteDepth
    ##    <dbl>           <dbl> <dbl> <dbl>              <dbl>     <dbl>
    ##  1  2004           2.43  10.0   3.00              12951      33.4
    ##  2  2004           1.63  11.0   3.00              12791      34.6
    ##  3  2004           0.462 12.0   3.00              11360      34.3
    ##  4  2005           0.923  1.00  3.00               6480      36.5
    ##  5  2005           1.51   2.00  3.00               6788      35.0
    ##  6  2005           4.55   3.00  3.00               4981      35.1
    ##  7  2005           4.50   4.00  3.00               5753      36.5
    ##  8  2005           4.37   5.00  3.00               3545      33.0
    ##  9  2005           3.53   6.00  3.00               4873      32.7
    ## 10  2005           5.54   7.00  3.00               6708      32.9
    ## # ... with 86 more rows, and 17 more variables: Fluorescence <dbl>, Oxygen
    ## #   <dbl>, `Secchi Depth` <dbl>, Temperature <dbl>, Turbidity <dbl>,
    ## #   `Ammonia (Dissolved)` <dbl>, `Chloride (Dissolved)` <dbl>, `Kjeldahl
    ## #   Nitrogen (Total)` <dbl>, `Nitrite + Nitrate (Dissolved)` <dbl>,
    ## #   `Organic Nitrogen (Dissolved)` <dbl>, `Ortho-phosphate (Dissolved)`
    ## #   <dbl>, `Pheophytin a` <dbl>, `Phosphorus (Total)` <dbl>, `Silica
    ## #   (SiO2) (Dissolved)` <dbl>, `Solids (Total Dissolved)` <dbl>, `Solids
    ## #   (Total Suspended)` <dbl>, `Solids (Volatile Suspended)` <dbl>

``` r
# remove variables that are not water quality variables

wq_meanmonthly_mod <- wq_meanmonthly_mod %>%
  ungroup() %>%
  select(-Year, -Month, -Depth)
wq_meanmonthly_mod
```

    ## # A tibble: 96 x 20
    ##    `Chlorophyll a` `Conductance (EC)` SiteDepth Fluorescence Oxygen
    ##              <dbl>              <dbl>     <dbl>        <dbl>  <dbl>
    ##  1           2.43               12951      33.4         1.35   8.01
    ##  2           1.63               12791      34.6         1.33   8.32
    ##  3           0.462              11360      34.3         1.28   8.93
    ##  4           0.923               6480      36.5         1.77   9.43
    ##  5           1.51                6788      35.0         1.37   8.87
    ##  6           4.55                4981      35.1         2.27   8.84
    ##  7           4.50                5753      36.5         2.52   9.17
    ##  8           4.37                3545      33.0         2.12   8.44
    ##  9           3.53                4873      32.7         1.84   7.98
    ## 10           5.54                6708      32.9         1.82   7.71
    ## # ... with 86 more rows, and 15 more variables: `Secchi Depth` <dbl>,
    ## #   Temperature <dbl>, Turbidity <dbl>, `Ammonia (Dissolved)` <dbl>,
    ## #   `Chloride (Dissolved)` <dbl>, `Kjeldahl Nitrogen (Total)` <dbl>,
    ## #   `Nitrite + Nitrate (Dissolved)` <dbl>, `Organic Nitrogen (Dissolved)`
    ## #   <dbl>, `Ortho-phosphate (Dissolved)` <dbl>, `Pheophytin a` <dbl>,
    ## #   `Phosphorus (Total)` <dbl>, `Silica (SiO2) (Dissolved)` <dbl>, `Solids
    ## #   (Total Dissolved)` <dbl>, `Solids (Total Suspended)` <dbl>, `Solids
    ## #   (Volatile Suspended)` <dbl>
…
wq_model <- select(wq_meanmonthly_mod,
                   `Chlorophyll a`,
                   `Conductance (EC)`,
                   Oxygen,
                   Temperature,
                   `Ammonia (Dissolved)`,
                   `Kjeldahl Nitrogen (Total)`,
                   `Organic Nitrogen (Dissolved)`,
                   `Pheophytin a`,
                   `Solids (Total Dissolved)`)
wq_model
```

    ## # A tibble: 96 x 9
    ##    `Chlorophyll a` `Conductance (EC~ Oxygen Temperature `Ammonia (Dissolv~
    ##              <dbl>             <dbl>  <dbl>       <dbl>              <dbl>
    ##  1           2.43              12951   8.01       17.4              0.154 
    ##  2           1.63              12791   8.32       13.8              0.178 
    ##  3           0.462             11360   8.93       10.9              0.236 
    ##  4           0.923              6480   9.43        8.96             0.156 
    ##  5           1.51               6788   8.87       12.4              0.175 
    ##  6           4.55               4981   8.84       15.6              0.118 
    ##  7           4.50               5753   9.17       15.6              0.0927
    ##  8           4.37               3545   8.44       18.5              0.0736
    ##  9           3.53               4873   7.98       20.1              0.0562
    ## 10           5.54               6708   7.71       22.7              0.0836
    ## # ... with 86 more rows, and 4 more variables: `Kjeldahl Nitrogen (Total)`
    ## #   <dbl>, `Organic Nitrogen (Dissolved)` <dbl>, `Pheophytin a` <dbl>,
    ## #   `Solids (Total Dissolved)` <dbl>
…
